Total Height = 20 + 1 + 10 + 150 + 10 + 1 + 20  = 212

Total Width = 20 + 1 + 10 + 400 + 10 + 1 + 20 = 462

Browser Calculated Height =  1 + 10 + 150 + 10 + 1 = 172

Browser Calculated Width = 1 + 10 + 400 + 10 + 1 = 422

